[
  {
    "content": [
      {
        "playerID": "bechtge01",
        "yearID": 1871,
        "stint": 1,
        "teamID": "PH1",
        "lgID": "NA",
        "W": 1,
        "L": 2,
        "G": 3,
        "GS": 3,
        "CG": 2,
        "SHO": 0,
        "SV": 0,
        "IPOuts": 78,
        "H": 43,
        "ER": 23,
        "HR": 0,
        "BB": 11,
        "SO": 1,
        "BAOpp": "",
        "ERA": 7.96,
        "IBB": "",
        "WP": "",
        "HBP": "",
        "BK": 0,
        "BFP": "",
        "GF": "",
        "R": 42,
        "SH": "",
        "SF": "",
        "GIDP": ""
      },
      {
        "playerID": "brainas01",
        "yearID": 1871,
        "stint": 1,
        "teamID": "WS3",
        "lgID": "NA",
        "W": 12,
        "L": 15,
        "G": 30,
        "GS": 30,
        "CG": 30,
        "SHO": 0,
        "SV": 0,
        "IPOuts": 792,
        "H": 361,
        "ER": 132,
        "HR": 4,
        "BB": 37,
        "SO": 13,
        "BAOpp": "",
        "ERA": 4.5,
        "IBB": "",
        "WP": "",
        "HBP": "",
        "BK": 0,
        "BFP": "",
        "GF": "",
        "R": 292,
        "SH": "",
        "SF": "",
        "GIDP": ""
      },
      {
        "playerID": "fergubo01",
        "yearID": 1871,
        "stint": 1,
        "teamID": "NY2",
        "lgID": "NA",
        "W": 0,
        "L": 0,
        "G": 1,
        "GS": 0,
        "CG": 0,
        "SHO": 0,
        "SV": 0,
        "IPOuts": 3,
        "H": 8,
        "ER": 3,
        "HR": 0,
        "BB": 0,
        "SO": 0,
        "BAOpp": "",
        "ERA": 27,
        "IBB": "",
        "WP": "",
        "HBP": "",
        "BK": 0,
        "BFP": "",
        "GF": "",
        "R": 9,
        "SH": "",
        "SF": "",
        "GIDP": ""
      },
      {
        "playerID": "fishech01",
        "yearID": 1871,
        "stint": 1,
        "teamID": "RC1",
        "lgID": "NA",
        "W": 4,
        "L": 16,
        "G": 24,
        "GS": 24,
        "CG": 22,
        "SHO": 1,
        "SV": 0,
        "IPOuts": 639,
        "H": 295,
        "ER": 103,
        "HR": 3,
        "BB": 31,
        "SO": 15,
        "BAOpp": "",
        "ERA": 4.35,
        "IBB": "",
        "WP": "",
        "HBP": "",
        "BK": 0,
        "BFP": "",
        "GF": "",
        "R": 257,
        "SH": "",
        "SF": "",
        "GIDP": ""
      },
      {
        "playerID": "fleetfr01",
        "yearID": 1871,
        "stint": 1,
        "teamID": "NY2",
        "lgID": "NA",
        "W": 0,
        "L": 1,
        "G": 1,
        "GS": 1,
        "CG": 1,
        "SHO": 0,
        "SV": 0,
        "IPOuts": 27,
        "H": 20,
        "ER": 10,
        "HR": 0,
        "BB": 3,
        "SO": 0,
        "BAOpp": "",
        "ERA": 10,
        "IBB": "",
        "WP": "",
        "HBP": "",
        "BK": 0,
        "BFP": "",
        "GF": "",
        "R": 21,
        "SH": "",
        "SF": "",
        "GIDP": ""
      },
      {
        "playerID": "flowedi01",
        "yearID": 1871,
        "stint": 1,
        "teamID": "TRO",
        "lgID": "NA",
        "W": 0,
        "L": 0,
        "G": 1,
        "GS": 0,
        "CG": 0,
        "SHO": 0,
        "SV": 0,
        "IPOuts": 3,
        "H": 1,
        "ER": 0,
        "HR": 0,
        "BB": 0,
        "SO": 0,
        "BAOpp": "",
        "ERA": 0,
        "IBB": "",
        "WP": "",
        "HBP": "",
        "BK": 0,
        "BFP": "",
        "GF": "",
        "R": 0,
        "SH": "",
        "SF": "",
        "GIDP": ""
      },
      {
        "playerID": "mackde01",
        "yearID": 1871,
        "stint": 1,
        "teamID": "RC1",
        "lgID": "NA",
        "W": 0,
        "L": 1,
        "G": 3,
        "GS": 1,
        "CG": 1,
        "SHO": 0,
        "SV": 0,
        "IPOuts": 39,
        "H": 20,
        "ER": 5,
        "HR": 0,
        "BB": 3,
        "SO": 1,
        "BAOpp": "",
        "ERA": 3.46,
        "IBB": "",
        "WP": "",
        "HBP": "",
        "BK": 0,
        "BFP": "",
        "GF": "",
        "R": 30,
        "SH": "",
        "SF": "",
        "GIDP": ""
      },
      {
        "playerID": "mathebo01",
        "yearID": 1871,
        "stint": 1,
        "teamID": "FW1",
        "lgID": "NA",
        "W": 6,
        "L": 11,
        "G": 19,
        "GS": 19,
        "CG": 19,
        "SHO": 1,
        "SV": 0,
        "IPOuts": 507,
        "H": 261,
        "ER": 97,
        "HR": 5,
        "BB": 21,
        "SO": 17,
        "BAOpp": "",
        "ERA": 5.17,
        "IBB": "",
        "WP": "",
        "HBP": "",
        "BK": 2,
        "BFP": "",
        "GF": "",
        "R": 243,
        "SH": "",
        "SF": "",
        "GIDP": ""
      },
      {
        "playerID": "mcbridi01",
        "yearID": 1871,
        "stint": 1,
        "teamID": "PH1",
        "lgID": "NA",
        "W": 18,
        "L": 5,
        "G": 25,
        "GS": 25,
        "CG": 25,
        "SHO": 0,
        "SV": 0,
        "IPOuts": 666,
        "H": 285,
        "ER": 113,
        "HR": 3,
        "BB": 40,
        "SO": 15,
        "BAOpp": "",
        "ERA": 4.58,
        "IBB": "",
        "WP": "",
        "HBP": "",
        "BK": 0,
        "BFP": "",
        "GF": "",
        "R": 223,
        "SH": "",
        "SF": "",
        "GIDP": ""
      },
      {
        "playerID": "mcmuljo01",
        "yearID": 1871,
        "stint": 1,
        "teamID": "TRO",
        "lgID": "NA",
        "W": 12,
        "L": 15,
        "G": 29,
        "GS": 29,
        "CG": 28,
        "SHO": 0,
        "SV": 0,
        "IPOuts": 747,
        "H": 430,
        "ER": 153,
        "HR": 4,
        "BB": 75,
        "SO": 12,
        "BAOpp": "",
        "ERA": 5.53,
        "IBB": "",
        "WP": "",
        "HBP": "",
        "BK": 0,
        "BFP": "",
        "GF": "",
        "R": 362,
        "SH": "",
        "SF": "",
        "GIDP": ""
      }
    ],
    "last": false,
    "totalPages": 4497,
    "totalElements": 44963,
    "size": 10,
    "number": 0,
    "sort": null,
    "numberOfElements": 10,
    "first": true
  }
]